…
    ## See spec(...) for full column specifications.

``` r
nyc_transit_data
```

    ## # A tibble: 1,868 x 19
    ##    line  station_name station_latitude station_longitu… route1 route2
    ##    <chr> <chr>                   <dbl>            <dbl> <chr>  <chr> 
    ##  1 4 Av… 25th St                  40.7            -74.0 R      <NA>  
    ##  2 4 Av… 25th St                  40.7            -74.0 R      <NA>  
    ##  3 4 Av… 36th St                  40.7            -74.0 N      R     
    ##  4 4 Av… 36th St                  40.7            -74.0 N      R     
    ##  5 4 Av… 36th St                  40.7            -74.0 N      R     
    ##  6 4 Av… 45th St                  40.6            -74.0 R      <NA>  
    ##  7 4 Av… 45th St                  40.6            -74.0 R      <NA>  
    ##  8 4 Av… 45th St                  40.6            -74.0 R      <NA>  
    ##  9 4 Av… 45th St                  40.6            -74.0 R      <NA>  
    ## 10 4 Av… 53rd St                  40.6            -74.0 R      <NA>  
    ## # ... with 1,858 more rows, and 13 more variables: route3 <chr>,
    ## #   route4 <chr>, route5 <chr>, route6 <chr>, route7 <chr>, route8 <int>,
    ## #   route9 <int>, route10 <int>, route11 <int>, entrance_type <chr>,
    ## #   entry <lgl>, vending <chr>, ada <lgl>
…
